﻿


EVENT   1
 PAGE   1
  ShowMessageFace("sirousagi_fc1",0,0,2,1)
  ShowMessage("\\n<White Rabbit>Congratulations! You've arrived at the boss floor! As a special gift, I'll heal you up!")
  250(bytes(0x04,0x08,0x6f,0x3a,0x0c,0x52,0x50,0x47,0x3a,0x3a,0x53,0x45,0x08,0x3a,0x0a,0x40,0x6e,0x61,0x6d,0x65,0x49,0x22,0x0a,0x48,0x65,0x61,0x6c,0x37,0x06,0x3a,0x06,0x45,0x54,0x3a,0x0b,0x40,0x70,0x69,0x74,0x63,0x68,0x69,0x69,0x3a,0x0c,0x40,0x76,0x6f,0x6c,0x75,0x6d,0x65,0x69,0x55))
  224(bytes(0x04,0x08,0x75,0x3a,0x0a,0x43,0x6f,0x6c,0x6f,0x72,0x25,0x00,0x00,0x00,0x00,0x00,0xe0,0x6f,0x40,0x00,0x00,0x00,0x00,0x00,0xe0,0x6f,0x40,0x00,0x00,0x00,0x00,0x00,0xe0,0x6f,0x40,0x00,0x00,0x00,0x00,0x00,0xe0,0x6f,0x40),30,true)
  314(0,0)
  ShowMessageFace("",0,0,2,2)
  ShowMessage("The party's HP and MP have been fully recovered!")
  ShowMessageFace("sirousagi_fc1",0,0,2,3)
  ShowMessage("\\n<White Rabbit>So, do you want something from me?")
  RunCommonEvent(912)
  0()



EVENT   2
 PAGE   1
  If(1,123,0,8,2)
   RunCommonEvent(920)
   EndEventProcessing()
   0()
  EndIf()
  DefineLabel("メイン")
  ShowChoices(strings("セーブする","次の階層に進む"),2)
  IfPlayerPicksChoice(0,null)
   352()
   JumpToLabel("メイン")
   0()
  IfPlayerPicksChoice(1,null)
   RunCommonEvent(901)
   EndEventProcessing()
   0()
  404()
  0()



EVENT   3
 PAGE   1
  If(1,123,0,8,2)
   RunCommonEvent(920)
   EndEventProcessing()
   0()
  EndIf()
  DefineLabel("メイン")
  ShowChoices(strings("セーブする","次の階層に進む"),2)
  IfPlayerPicksChoice(0,null)
   352()
   JumpToLabel("メイン")
   0()
  IfPlayerPicksChoice(1,null)
   RunCommonEvent(901)
   EndEventProcessing()
   0()
  404()
  0()



EVENT   4
 PAGE   1
  ChangeSwitch(49,49,0)
  250(bytes(0x04,0x08,0x6f,0x3a,0x0c,0x52,0x50,0x47,0x3a,0x3a,0x53,0x45,0x08,0x3a,0x0a,0x40,0x6e,0x61,0x6d,0x65,0x49,0x22,0x0a,0x43,0x68,0x65,0x73,0x74,0x06,0x3a,0x06,0x45,0x54,0x3a,0x0b,0x40,0x70,0x69,0x74,0x63,0x68,0x69,0x69,0x3a,0x0c,0x40,0x76,0x6f,0x6c,0x75,0x6d,0x65,0x69,0x55))
  205(0,bytes(0x04,0x08,0x6f,0x3a,0x13,0x52,0x50,0x47,0x3a,0x3a,0x4d,0x6f,0x76,0x65,0x52,0x6f,0x75,0x74,0x65,0x09,0x3a,0x0c,0x40,0x72,0x65,0x70,0x65,0x61,0x74,0x46,0x3a,0x0f,0x40,0x73,0x6b,0x69,0x70,0x70,0x61,0x62,0x6c,0x65,0x46,0x3a,0x0a,0x40,0x77,0x61,0x69,0x74,0x54,0x3a,0x0a,0x40,0x6c,0x69,0x73,0x74,0x5b,0x0b,0x6f,0x3a,0x15,0x52,0x50,0x47,0x3a,0x3a,0x4d,0x6f,0x76,0x65,0x43,0x6f,0x6d,0x6d,0x61,0x6e,0x64,0x07,0x3a,0x0a,0x40,0x63,0x6f,0x64,0x65,0x69,0x29,0x3a,0x10,0x40,0x70,0x61,0x72,0x61,0x6d,0x65,0x74,0x65,0x72,0x73,0x5b,0x00,0x6f,0x3b,0x0a,0x07,0x3b,0x0b,0x69,0x16,0x3b,0x0c,0x5b,0x00,0x6f,0x3b,0x0a,0x07,0x3b,0x0b,0x69,0x14,0x3b,0x0c,0x5b,0x06,0x69,0x08,0x6f,0x3b,0x0a,0x07,0x3b,0x0b,0x69,0x17,0x3b,0x0c,0x5b,0x00,0x6f,0x3b,0x0a,0x07,0x3b,0x0b,0x69,0x14,0x3b,0x0c,0x5b,0x06,0x69,0x08,0x6f,0x3b,0x0a,0x07,0x3b,0x0b,0x69,0x00,0x3b,0x0c,0x5b,0x00))
  ChangeSwitch(57,57,0)
  RunCommonEvent(903)
  ChangeSwitch(49,49,1)
  0()
 PAGE   2
  // condition: switch 57 is ON
  0()



EVENT   5
 PAGE   1
  RunCommonEvent(890)
  0()
 PAGE   2
  // condition: switch 50 is ON
  0()



EVENT   6
 PAGE   1
  // condition: switch 54 is ON
  ChangeSwitch(50,50,0)
  ShowMessageFace("nero_fc1",0,0,2,1)
  ShowMessage("\\n<Nero>I defeated the boss of this layer. Well then, take care of yourselves...")
  Wait(15)
  250(bytes(0x04,0x08,0x6f,0x3a,0x0c,0x52,0x50,0x47,0x3a,0x3a,0x53,0x45,0x08,0x3a,0x0a,0x40,0x6e,0x61,0x6d,0x65,0x49,0x22,0x0d,0x6d,0x6f,0x6e,0x5f,0x77,0x61,0x72,0x70,0x06,0x3a,0x06,0x45,0x54,0x3a,0x0b,0x40,0x70,0x69,0x74,0x63,0x68,0x69,0x69,0x3a,0x0c,0x40,0x76,0x6f,0x6c,0x75,0x6d,0x65,0x69,0x69))
  ChangeSwitch(54,54,1)
  ShowMessageFace("",0,0,2,2)
  ShowMessage("Nero has disappeared...")
  0()



EVENT   7
 PAGE   1
  ChangeSwitch(49,49,0)
  250(bytes(0x04,0x08,0x6f,0x3a,0x0c,0x52,0x50,0x47,0x3a,0x3a,0x53,0x45,0x08,0x3a,0x0a,0x40,0x6e,0x61,0x6d,0x65,0x49,0x22,0x0a,0x43,0x68,0x65,0x73,0x74,0x06,0x3a,0x06,0x45,0x54,0x3a,0x0b,0x40,0x70,0x69,0x74,0x63,0x68,0x69,0x69,0x3a,0x0c,0x40,0x76,0x6f,0x6c,0x75,0x6d,0x65,0x69,0x55))
  205(0,bytes(0x04,0x08,0x6f,0x3a,0x13,0x52,0x50,0x47,0x3a,0x3a,0x4d,0x6f,0x76,0x65,0x52,0x6f,0x75,0x74,0x65,0x09,0x3a,0x0c,0x40,0x72,0x65,0x70,0x65,0x61,0x74,0x46,0x3a,0x0f,0x40,0x73,0x6b,0x69,0x70,0x70,0x61,0x62,0x6c,0x65,0x46,0x3a,0x0a,0x40,0x77,0x61,0x69,0x74,0x54,0x3a,0x0a,0x40,0x6c,0x69,0x73,0x74,0x5b,0x0b,0x6f,0x3a,0x15,0x52,0x50,0x47,0x3a,0x3a,0x4d,0x6f,0x76,0x65,0x43,0x6f,0x6d,0x6d,0x61,0x6e,0x64,0x07,0x3a,0x0a,0x40,0x63,0x6f,0x64,0x65,0x69,0x29,0x3a,0x10,0x40,0x70,0x61,0x72,0x61,0x6d,0x65,0x74,0x65,0x72,0x73,0x5b,0x00,0x6f,0x3b,0x0a,0x07,0x3b,0x0b,0x69,0x16,0x3b,0x0c,0x5b,0x00,0x6f,0x3b,0x0a,0x07,0x3b,0x0b,0x69,0x14,0x3b,0x0c,0x5b,0x06,0x69,0x08,0x6f,0x3b,0x0a,0x07,0x3b,0x0b,0x69,0x17,0x3b,0x0c,0x5b,0x00,0x6f,0x3b,0x0a,0x07,0x3b,0x0b,0x69,0x14,0x3b,0x0c,0x5b,0x06,0x69,0x08,0x6f,0x3b,0x0a,0x07,0x3b,0x0b,0x69,0x00,0x3b,0x0c,0x5b,0x00))
  ChangeSwitch(47,47,0)
  RunCommonEvent(903)
  ChangeSwitch(49,49,1)
  0()
 PAGE   2
  // condition: switch 47 is ON
  0()



EVENT   8
 PAGE   1
  ChangeSwitch(49,49,0)
  250(bytes(0x04,0x08,0x6f,0x3a,0x0c,0x52,0x50,0x47,0x3a,0x3a,0x53,0x45,0x08,0x3a,0x0a,0x40,0x6e,0x61,0x6d,0x65,0x49,0x22,0x0a,0x43,0x68,0x65,0x73,0x74,0x06,0x3a,0x06,0x45,0x54,0x3a,0x0b,0x40,0x70,0x69,0x74,0x63,0x68,0x69,0x69,0x3a,0x0c,0x40,0x76,0x6f,0x6c,0x75,0x6d,0x65,0x69,0x55))
  205(0,bytes(0x04,0x08,0x6f,0x3a,0x13,0x52,0x50,0x47,0x3a,0x3a,0x4d,0x6f,0x76,0x65,0x52,0x6f,0x75,0x74,0x65,0x09,0x3a,0x0c,0x40,0x72,0x65,0x70,0x65,0x61,0x74,0x46,0x3a,0x0f,0x40,0x73,0x6b,0x69,0x70,0x70,0x61,0x62,0x6c,0x65,0x46,0x3a,0x0a,0x40,0x77,0x61,0x69,0x74,0x54,0x3a,0x0a,0x40,0x6c,0x69,0x73,0x74,0x5b,0x0b,0x6f,0x3a,0x15,0x52,0x50,0x47,0x3a,0x3a,0x4d,0x6f,0x76,0x65,0x43,0x6f,0x6d,0x6d,0x61,0x6e,0x64,0x07,0x3a,0x0a,0x40,0x63,0x6f,0x64,0x65,0x69,0x29,0x3a,0x10,0x40,0x70,0x61,0x72,0x61,0x6d,0x65,0x74,0x65,0x72,0x73,0x5b,0x00,0x6f,0x3b,0x0a,0x07,0x3b,0x0b,0x69,0x16,0x3b,0x0c,0x5b,0x00,0x6f,0x3b,0x0a,0x07,0x3b,0x0b,0x69,0x14,0x3b,0x0c,0x5b,0x06,0x69,0x08,0x6f,0x3b,0x0a,0x07,0x3b,0x0b,0x69,0x17,0x3b,0x0c,0x5b,0x00,0x6f,0x3b,0x0a,0x07,0x3b,0x0b,0x69,0x14,0x3b,0x0c,0x5b,0x06,0x69,0x08,0x6f,0x3b,0x0a,0x07,0x3b,0x0b,0x69,0x00,0x3b,0x0c,0x5b,0x00))
  ChangeSwitch(58,58,0)
  RunCommonEvent(903)
  ChangeSwitch(49,49,1)
  0()
 PAGE   2
  // condition: switch 58 is ON
  0()



EVENT   9
 PAGE   1
  If(12,"unlock_level < 2")
   ShowMessageFace("",0,0,2,1)
   ShowMessage("宝箱には鍵が掛かっている……")
   EndEventProcessing()
   0()
  EndIf()
  250(bytes(0x04,0x08,0x6f,0x3a,0x0c,0x52,0x50,0x47,0x3a,0x3a,0x53,0x45,0x08,0x3a,0x0a,0x40,0x6e,0x61,0x6d,0x65,0x49,0x22,0x0a,0x43,0x68,0x65,0x73,0x74,0x06,0x3a,0x06,0x45,0x54,0x3a,0x0b,0x40,0x70,0x69,0x74,0x63,0x68,0x69,0x69,0x3a,0x0c,0x40,0x76,0x6f,0x6c,0x75,0x6d,0x65,0x69,0x55))
  205(0,bytes(0x04,0x08,0x6f,0x3a,0x13,0x52,0x50,0x47,0x3a,0x3a,0x4d,0x6f,0x76,0x65,0x52,0x6f,0x75,0x74,0x65,0x09,0x3a,0x0c,0x40,0x72,0x65,0x70,0x65,0x61,0x74,0x46,0x3a,0x0f,0x40,0x73,0x6b,0x69,0x70,0x70,0x61,0x62,0x6c,0x65,0x46,0x3a,0x0a,0x40,0x77,0x61,0x69,0x74,0x54,0x3a,0x0a,0x40,0x6c,0x69,0x73,0x74,0x5b,0x0b,0x6f,0x3a,0x15,0x52,0x50,0x47,0x3a,0x3a,0x4d,0x6f,0x76,0x65,0x43,0x6f,0x6d,0x6d,0x61,0x6e,0x64,0x07,0x3a,0x0a,0x40,0x63,0x6f,0x64,0x65,0x69,0x29,0x3a,0x10,0x40,0x70,0x61,0x72,0x61,0x6d,0x65,0x74,0x65,0x72,0x73,0x5b,0x00,0x6f,0x3b,0x0a,0x07,0x3b,0x0b,0x69,0x16,0x3b,0x0c,0x5b,0x00,0x6f,0x3b,0x0a,0x07,0x3b,0x0b,0x69,0x14,0x3b,0x0c,0x5b,0x06,0x69,0x08,0x6f,0x3b,0x0a,0x07,0x3b,0x0b,0x69,0x17,0x3b,0x0c,0x5b,0x00,0x6f,0x3b,0x0a,0x07,0x3b,0x0b,0x69,0x14,0x3b,0x0c,0x5b,0x06,0x69,0x08,0x6f,0x3b,0x0a,0x07,0x3b,0x0b,0x69,0x00,0x3b,0x0c,0x5b,0x00))
  ChangeSwitch(46,46,0)
  RunCommonEvent(914)
  0()
 PAGE   2
  // condition: switch 46 is ON
  0()



EVENT   10
 PAGE   1
  ChangeSwitch(49,49,0)
  250(bytes(0x04,0x08,0x6f,0x3a,0x0c,0x52,0x50,0x47,0x3a,0x3a,0x53,0x45,0x08,0x3a,0x0a,0x40,0x6e,0x61,0x6d,0x65,0x49,0x22,0x0a,0x43,0x68,0x65,0x73,0x74,0x06,0x3a,0x06,0x45,0x54,0x3a,0x0b,0x40,0x70,0x69,0x74,0x63,0x68,0x69,0x69,0x3a,0x0c,0x40,0x76,0x6f,0x6c,0x75,0x6d,0x65,0x69,0x55))
  205(0,bytes(0x04,0x08,0x6f,0x3a,0x13,0x52,0x50,0x47,0x3a,0x3a,0x4d,0x6f,0x76,0x65,0x52,0x6f,0x75,0x74,0x65,0x09,0x3a,0x0c,0x40,0x72,0x65,0x70,0x65,0x61,0x74,0x46,0x3a,0x0f,0x40,0x73,0x6b,0x69,0x70,0x70,0x61,0x62,0x6c,0x65,0x46,0x3a,0x0a,0x40,0x77,0x61,0x69,0x74,0x54,0x3a,0x0a,0x40,0x6c,0x69,0x73,0x74,0x5b,0x0b,0x6f,0x3a,0x15,0x52,0x50,0x47,0x3a,0x3a,0x4d,0x6f,0x76,0x65,0x43,0x6f,0x6d,0x6d,0x61,0x6e,0x64,0x07,0x3a,0x0a,0x40,0x63,0x6f,0x64,0x65,0x69,0x29,0x3a,0x10,0x40,0x70,0x61,0x72,0x61,0x6d,0x65,0x74,0x65,0x72,0x73,0x5b,0x00,0x6f,0x3b,0x0a,0x07,0x3b,0x0b,0x69,0x16,0x3b,0x0c,0x5b,0x00,0x6f,0x3b,0x0a,0x07,0x3b,0x0b,0x69,0x14,0x3b,0x0c,0x5b,0x06,0x69,0x08,0x6f,0x3b,0x0a,0x07,0x3b,0x0b,0x69,0x17,0x3b,0x0c,0x5b,0x00,0x6f,0x3b,0x0a,0x07,0x3b,0x0b,0x69,0x14,0x3b,0x0c,0x5b,0x06,0x69,0x08,0x6f,0x3b,0x0a,0x07,0x3b,0x0b,0x69,0x00,0x3b,0x0c,0x5b,0x00))
  ChangeSwitch(45,45,0)
  RunCommonEvent(903)
  ChangeSwitch(49,49,1)
  0()
 PAGE   2
  // condition: switch 45 is ON
  0()



EVENT   11
 PAGE   1
  221()
  ChangeSwitch(41,41,1)
  ChangeSwitch(52,52,1)
  ChangeSaveEnabled(1)
  ChangeSwitch(61,61,1)
  ChangeSwitch(62,62,1)
  ChangeSwitch(63,63,1)
  ChangeSwitch(64,64,1)
  ChangeSwitch(65,65,1)
  ChangeSwitch(69,69,1)
  ChangeSwitch(70,70,1)
  ChangeSwitch(71,71,1)
  ChangeSwitch(72,72,1)
  ChangeSwitch(54,54,1)
  ChangeSwitch(66,66,1)
  ChangeSwitch(67,67,1)
  ChangeSwitch(68,68,1)
  ChangeVariable(131,131,0,0,0)
  ChangeVariable(121,121,0,0,0)
  RunCommonEvent(112)
  If(1,121,1,122,1)
   ChangeVariable(122,122,0,1,121)
   0()
  EndIf()
  TeleportPlayer(0,576,14,50,2,2)
  ShowMessageFace("",0,0,2,1)
  ShowMessage("混沌の迷宮リニューアルにつき、過去の迷宮から弾き出された！")
  Wait(60)
  222()
  TemporaryRemoveEvent()
  0()
 PAGE   2
  // condition: switch 1926 is ON
  0()

EVENT   12
 PAGE   1
  // condition: variable 123 >= 9
  PictureDisplay(5,"80_s_mermaid_st02",0,0,0,0,100,100,0,0)
  PictureMove(5,null,0,0,0,0,100,100,255,0,15,true)
  ShowMessageFace("s_mermaid_fc1",1,0,2,1)
  ShowMessage("【行商マーメイド】")
  ShowMessage("まいど、うちは行商のマーメイドや。")
  ShowMessage("ここで買い物していくか？")
  ShowChoices(strings("買い物をする","秘武器の一括売却","秘防具の一括売却","用はない"),4)
  IfPlayerPicksChoice(0,null)
   Shop(0,2,0,0,false)
   605(0,4,0,0)
   605(0,7,0,0)
   605(0,11,0,0)
   605(0,13,0,0)
   605(0,14,0,0)
   605(0,15,0,0)
   605(0,16,0,0)
   605(0,17,0,0)
   605(0,18,0,0)
   605(0,19,0,0)
   605(0,20,0,0)
   605(0,21,0,0)
   605(0,23,0,0)
   605(0,35,0,0)
   605(0,52,0,0)
   605(0,56,0,0)
   605(0,60,0,0)
   605(0,64,0,0)
   605(0,68,0,0)
   605(0,72,0,0)
   605(0,76,0,0)
   605(0,80,0,0)
   605(0,102,0,0)
   605(0,109,0,0)
   ShowMessageFace("s_mermaid_fc1",0,0,2,2)
   ShowMessage("【行商マーメイド】")
   ShowMessage("まいどあり、また来てな！")
   PictureClear(5)
   EndEventProcessing()
   0()
  IfPlayerPicksChoice(1,null)
   ShowMessageFace("s_mermaid_fc1",0,0,2,3)
   ShowMessage("【行商マーメイド】")
   ShowMessage("装備してなくて、お気に入り登録されてない")
   ShowMessage("秘武器を全部まとめて処分するんやな？")
   ShowChoices(strings("やめておく","一括売却する"),1)
   IfPlayerPicksChoice(0,null)
    PictureClear(5)
    EndEventProcessing()
    0()
   IfPlayerPicksChoice(1,null)
    ShowMessageFace("s_mermaid_fc1",0,0,2,4)
    ShowMessage("【行商マーメイド】")
    ShowMessage("もう一度、念のために確認しとくで。")
    ShowMessage("ホンマに秘武器を全部処分していいんやな？")
    ShowChoices(strings("やめておく","一括売却する"),1)
    IfPlayerPicksChoice(0,null)
     PictureClear(5)
     EndEventProcessing()
     0()
    IfPlayerPicksChoice(1,null)
     250(bytes(0x04,0x08,0x6f,0x3a,0x0c,0x52,0x50,0x47,0x3a,0x3a,0x53,0x45,0x08,0x3a,0x0a,0x40,0x6e,0x61,0x6d,0x65,0x49,0x22,0x0b,0x45,0x71,0x75,0x69,0x70,0x33,0x06,0x3a,0x06,0x45,0x54,0x3a,0x0b,0x40,0x70,0x69,0x74,0x63,0x68,0x69,0x69,0x3a,0x0c,0x40,0x76,0x6f,0x6c,0x75,0x6d,0x65,0x69,0x55))
     355("sell_enchant_weapons")
     ShowMessageFace("",0,0,2,5)
     ShowMessage("秘武器を全て売却した！")
     PictureClear(5)
     EndEventProcessing()
     0()
    404()
    0()
   404()
   0()
  IfPlayerPicksChoice(2,null)
   ShowMessageFace("s_mermaid_fc1",0,0,2,6)
   ShowMessage("【行商マーメイド】")
   ShowMessage("装備してなくて、お気に入り登録されてない")
   ShowMessage("秘防具を全部まとめて処分するんやな？")
   ShowChoices(strings("やめておく","一括売却する"),1)
   IfPlayerPicksChoice(0,null)
    PictureClear(5)
    EndEventProcessing()
    0()
   IfPlayerPicksChoice(1,null)
    ShowMessageFace("s_mermaid_fc1",0,0,2,7)
    ShowMessage("【行商マーメイド】")
    ShowMessage("もう一度、念のために確認しとくで。")
    ShowMessage("ホンマに秘防具を全部処分していいんやな？")
    ShowChoices(strings("やめておく","一括売却する"),1)
    IfPlayerPicksChoice(0,null)
     PictureClear(5)
     EndEventProcessing()
     0()
    IfPlayerPicksChoice(1,null)
     250(bytes(0x04,0x08,0x6f,0x3a,0x0c,0x52,0x50,0x47,0x3a,0x3a,0x53,0x45,0x08,0x3a,0x0a,0x40,0x6e,0x61,0x6d,0x65,0x49,0x22,0x0b,0x45,0x71,0x75,0x69,0x70,0x33,0x06,0x3a,0x06,0x45,0x54,0x3a,0x0b,0x40,0x70,0x69,0x74,0x63,0x68,0x69,0x69,0x3a,0x0c,0x40,0x76,0x6f,0x6c,0x75,0x6d,0x65,0x69,0x55))
     355("sell_enchant_armors")
     ShowMessageFace("",0,0,2,8)
     ShowMessage("秘防具を全て売却した！")
     PictureClear(5)
     EndEventProcessing()
     0()
    404()
    0()
   404()
   0()
  IfPlayerPicksChoice(3,null)
   PictureClear(5)
   EndEventProcessing()
   0()
  404()
  0()



EVENT   13
 PAGE   1
  // condition: variable 123 >= 9
  PictureDisplay(5,"80_dragonp_st21",0,0,0,0,100,100,0,0)
  PictureMove(5,null,0,0,0,0,100,100,255,0,30,true)
  ShowMessageFace("dragonp_fc2",0,0,2,1)
  ShowMessage("【鍛冶屋】")
  ShowMessage("……私に何の用だ？")
  ShowMessage("（秘武器所持数:\\V[200]/1000　秘防具所持数:\\V[201]/2000）")
  DefineLabel("鍛冶")
  ShowChoices(strings("秘石をセットする","秘石を精製する","秘装備を強化する","説明を聞く"),5)
  IfPlayerPicksChoice(0,null)
   355("SceneManager.call(Scene_EquipStone)")
   JumpToLabel("鍛冶")
   0()
  IfPlayerPicksChoice(1,null)
   DefineLabel("秘石精製")
   355("unlimited_choices(12,")
   655(" [\"戦技秘石\",")
   655("\"職技秘石\",")
   655("\"魔法秘石\",")
   655("\"防御秘石\",")
   655("\"特殊秘石\",")
   655("\"装備秘石\",")
   655("\"やめる\"])")
   If(1,12,0,0,0)
    355("call_synthesize(31)")
    JumpToLabel("秘石精製")
    0()
   EndIf()
   If(1,12,0,1,0)
    355("call_synthesize(32)")
    JumpToLabel("秘石精製")
    0()
   EndIf()
   If(1,12,0,2,0)
    355("call_synthesize(33)")
    JumpToLabel("秘石精製")
    0()
   EndIf()
   If(1,12,0,3,0)
    355("call_synthesize(34)")
    JumpToLabel("秘石精製")
    0()
   EndIf()
   If(1,12,0,4,0)
    355("call_synthesize(35)")
    JumpToLabel("秘石精製")
    0()
   EndIf()
   If(1,12,0,5,0)
    DefineLabel("装備秘石")
    355("unlimited_choices(13,")
    655(" [\"攻撃武器\",")
    655("\"器用・速度武器\",")
    655("\"職業武器\",")
    655("\"魔法武器\",")
    655("\"防具\",")
    655("\"やめる\"])")
    If(1,13,0,0,0)
     355("call_synthesize(41)")
     JumpToLabel("装備秘石")
     0()
    EndIf()
    If(1,13,0,1,0)
     355("call_synthesize(42)")
     JumpToLabel("装備秘石")
     0()
    EndIf()
    If(1,13,0,2,0)
     355("call_synthesize(43)")
     JumpToLabel("装備秘石")
     0()
    EndIf()
    If(1,13,0,3,0)
     355("call_synthesize(44)")
     JumpToLabel("装備秘石")
     0()
    EndIf()
    If(1,13,0,4,0)
     355("call_synthesize(45)")
     JumpToLabel("装備秘石")
     0()
    EndIf()
    JumpToLabel("秘石精製")
    0()
   EndIf()
   JumpToLabel("鍛冶")
   0()
  IfPlayerPicksChoice(2,null)
   355("SceneManager.call(Scene_Smith)")
   JumpToLabel("鍛冶")
   0()
  IfPlayerPicksChoice(3,null)
   DefineLabel("解説")
   ShowMessageFace("",0,0,2,2)
   ShowMessage("何について聞きますか？")
   355("unlimited_choices(12,")
   655(" [\"秘武器・秘防具について聞く\",")
   655("\"秘石について聞く\",")
   655("\"秘石の精製について聞く\",")
   655("\"秘装備の強化について聞く\",")
   655("\"やめる\"])")
   If(1,12,0,0,0)
    ShowMessageFace("dragonp_fc2",0,0,2,3)
    ShowMessage("【鍛冶屋】")
    ShowMessage("秘武器に秘防具、秘石……これらをまとめて秘具と言う。")
    ShowMessage("混沌で生まれし秘具は、極めて強力な力を秘めた品だ。")
    ShowMessageFace("dragonp_fc2",0,0,2,4)
    ShowMessage("【鍛冶屋】")
    ShowMessage("秘武器や秘防具は、ひとつひとつが極めて個性的だ。")
    ShowMessage("基本的には、同性能の品は存在しないといって良いだろう。")
    ShowMessageFace("dragonp_fc2",0,0,2,5)
    ShowMessage("【鍛冶屋】")
    ShowMessage("秘武器も秘防具も、その能力値は固定された値を取らず……")
    ShowMessage("そして、付加される特殊能力の種類や数値さえ異なるのだ。")
    ShowMessageFace("dragonp_fc2",0,0,2,6)
    ShowMessage("【鍛冶屋】")
    ShowMessage("入手した時のレアポイントが高ければ高いほど、")
    ShowMessage("よりレアな秘具が入手でき、その性能も高くなる。")
    ShowMessageFace("dragonp_fc2",0,0,2,7)
    ShowMessage("【鍛冶屋】")
    ShowMessage("レアポイントは、ダンジョンの深層であるほど高くなる。")
    ShowMessage("また、ダンジョン内の敵を倒す事でも上昇するぞ。")
    ShowMessageFace("dragonp_fc2",0,0,2,8)
    ShowMessage("【鍛冶屋】")
    ShowMessage("ゆえに強力な秘具が欲しければ、高ランクダンジョンの深層で、")
    ShowMessage("なるべく多くの敵を倒しながら探索する事になるだろう。")
    ShowMessageFace("dragonp_fc2",0,0,2,9)
    ShowMessage("【鍛冶屋】")
    ShowMessage("なお大半の秘装備は、名前が青色で表示されている。")
    ShowMessage("こうした品はコモンと呼ばれ、いわば普通の秘装備だ。")
    ShowMessageFace("dragonp_fc2",0,0,2,10)
    ShowMessage("【鍛冶屋】")
    ShowMessage("しかし中には、名前が黄色のレアが存在する。")
    ShowMessage("レアは珍しい逸品で、能力もコモンより高いぞ。")
    ShowMessageFace("dragonp_fc2",0,0,2,11)
    ShowMessage("【鍛冶屋】")
    ShowMessage("なお秘石は、秘武器や秘防具にセットする事で効力を発揮する。")
    ShowMessage("詳しくは、別のところで説明しよう。")
    ShowMessageFace("dragonp_fc2",0,0,2,12)
    ShowMessage("【鍛冶屋】")
    ShowMessage("ともかく、優れた装備は難関の打破に必須。")
    ShowMessage("強力な秘具を収集し、戦力を整えるがいい。")
    ShowMessageFace("dragonp_fc2",0,0,2,13)
    ShowMessage("【鍛冶屋】")
    ShowMessage("さて、他に何が聞きたい？")
    JumpToLabel("解説")
    0()
   EndIf()
   If(1,12,0,1,0)
    ShowMessageFace("dragonp_fc2",0,0,2,14)
    ShowMessage("【鍛冶屋】")
    ShowMessage("秘石とは、秘武器や秘防具にセットし性能を引き出す宝玉。")
    ShowMessage("逆に言えば、装備品にセットしなければ意味はない。")
    ShowMessageFace("dragonp_fc2",0,0,2,15)
    ShowMessage("【鍛冶屋】")
    ShowMessage("秘装備には、ソケットと呼ばれる穴が空いている事がある。")
    ShowMessage("ものによっては、複数のソケットが備わっているはずだ。")
    ShowMessageFace("dragonp_fc2",0,0,2,16)
    ShowMessage("【鍛冶屋】")
    ShowMessage("このソケット一つにつき、秘石を一つセット出来る。")
    ShowMessage("するとその装備品性能に、秘石の効果がプラスされるのだ。")
    ShowMessageFace("dragonp_fc2",0,0,2,17)
    ShowMessage("【鍛冶屋】")
    ShowMessage("なおソケットの数は、装備品のレアさに比例する。")
    ShowMessage("例によって、深層で得た品ほどソケット数は多いはずだ。")
    ShowMessageFace("dragonp_fc2",0,0,2,18)
    ShowMessage("【鍛冶屋】")
    ShowMessage("また、秘石には効果別に六種類が存在する。")
    ShowMessage("戦技、職技、魔法、防御、特殊、装備の六種だな。")
    ShowMessageFace("dragonp_fc2",0,0,2,19)
    ShowMessage("【鍛冶屋】")
    ShowMessage("そして一つの装備品に、ソケットが複数あったとしても……")
    ShowMessage("同種の秘石を、複数セットする事はできないのだ。")
    ShowMessageFace("dragonp_fc2",0,0,2,20)
    ShowMessage("【鍛冶屋】")
    ShowMessage("例えば秘武器に戦技の秘石をセットしたとしよう。")
    ShowMessage("すると他のソケットには、戦技以外の秘石しかセットできない。")
    ShowMessageFace("dragonp_fc2",0,0,2,21)
    ShowMessage("【鍛冶屋】")
    ShowMessage("なお秘石のセットや取り外しは、どこででも出来る訳ではない。")
    ShowMessage("それなりの技術がないと、秘石を扱う事はできないのだ。")
    ShowMessageFace("dragonp_fc2",0,0,2,22)
    ShowMessage("【鍛冶屋】")
    ShowMessage("……まあ、秘石の付け外しは私に任せるがいい。")
    ShowMessage("特別に、無料でサービスしてやろう。")
    ShowMessageFace("dragonp_fc2",0,0,2,23)
    ShowMessage("【鍛冶屋】")
    ShowMessage("なお、秘石の入手方法だが……")
    ShowMessage("まずは、「混沌の試練」や「混沌の迷宮」で拾う事になる。")
    ShowMessageFace("dragonp_fc2",0,0,2,24)
    ShowMessage("【鍛冶屋】")
    ShowMessage("それを素材に、より上位の秘石を精製する事になるが……")
    ShowMessage("詳しくは、別のところで説明しよう。")
    ShowMessageFace("dragonp_fc2",0,0,2,25)
    ShowMessage("【鍛冶屋】")
    ShowMessage("さて、他に何が聞きたい？")
    JumpToLabel("解説")
    0()
   EndIf()
   If(1,12,0,2,0)
    ShowMessageFace("dragonp_fc2",0,0,2,26)
    ShowMessage("【鍛冶屋】")
    ShowMessage("秘石は、なかなか手に入りづらい。")
    ShowMessage("ダンジョン内でも、下位のものしか拾えないだろう……")
    ShowMessageFace("dragonp_fc2",0,0,2,27)
    ShowMessage("【鍛冶屋】")
    ShowMessage("ゆえに上位の秘石を手に入れるには、")
    ShowMessage("下位の秘石を素材にして精製するしかないのだ。")
    ShowMessageFace("dragonp_fc2",0,0,2,28)
    ShowMessage("【鍛冶屋】")
    ShowMessage("例えば、「HP10%アップ」の秘石を三つ集め……")
    ShowMessage("これを素材として消費し、上位の「HP20%アップ」が精製される。")
    ShowMessageFace("dragonp_fc2",0,0,2,29)
    ShowMessage("【鍛冶屋】")
    ShowMessage("こうした秘石の精製作業も、私の仕事だが……")
    ShowMessage("かなり高度な作業につき、それなりの報酬は払ってもらうぞ。")
    ShowMessageFace("dragonp_fc2",0,0,2,30)
    ShowMessage("【鍛冶屋】")
    ShowMessage("また特殊なものとして、装備秘石というのが存在する。")
    ShowMessage("これは、現世の装備品を秘石化したものだ。")
    ShowMessageFace("dragonp_fc2",0,0,2,31)
    ShowMessage("【鍛冶屋】")
    ShowMessage("例えば、防御性能を持った騎士剣「ディフェンダー」……")
    ShowMessage("「秘石：ディフェンダー」は、この武器の効果を備えている。")
    ShowMessageFace("dragonp_fc2",0,0,2,32)
    ShowMessage("【鍛冶屋】")
    ShowMessage("ゆえに「秘石：ディフェンダー」を武器にセットすれば……")
    ShowMessage("その武器に、ディフェンダーの効果が備わるというわけだ。")
    ShowMessageFace("dragonp_fc2",0,0,2,33)
    ShowMessage("【鍛冶屋】")
    ShowMessage("装備秘石の精製方法だが……")
    ShowMessage("ダンジョンで拾える「空の秘石」と、現世の装備品が必要だ。")
    ShowMessageFace("dragonp_fc2",0,0,2,34)
    ShowMessage("【鍛冶屋】")
    ShowMessage("その二つを消費し、装備秘石を精製するわけだが……")
    ShowMessage("どの現世装備でも、秘石化できる訳ではない事も覚えておけ。")
    ShowMessageFace("dragonp_fc2",0,0,2,35)
    ShowMessage("【鍛冶屋】")
    ShowMessage("秘石化できる装備は、高名もしくは特殊な能力を備えた逸品のみ。")
    ShowMessage("そこらの凡百な品など、秘石化する意味などないのだ。")
    ShowMessageFace("dragonp_fc2",0,0,2,36)
    ShowMessage("【鍛冶屋】")
    ShowMessage("秘石の精製に関しては、こんなところだな。")
    ShowMessage("精製を重ね、より強力な秘石を入手するがいい。")
    ShowMessageFace("dragonp_fc2",0,0,2,37)
    ShowMessage("【鍛冶屋】")
    ShowMessage("さて、他に何が聞きたい？")
    JumpToLabel("解説")
    0()
   EndIf()
   If(1,12,0,3,0)
    ShowMessageFace("dragonp_fc2",0,0,2,38)
    ShowMessage("【鍛冶屋】")
    ShowMessage("秘武器や秘防具には、強化値というものが存在する。")
    ShowMessage("例えば「炎の剣＋１」の、「＋１」が強化値だ。")
    ShowMessageFace("dragonp_fc2",0,0,2,39)
    ShowMessage("【鍛冶屋】")
    ShowMessage("この強化値が高ければ高いほど、装備品の性能値も高くなる。")
    ShowMessage("そして強化値は、装備品を合成する事で強化出来るのだ。")
    ShowMessageFace("dragonp_fc2",0,0,2,40)
    ShowMessage("【鍛冶屋】")
    ShowMessage("強化値の合成だが……同じ種類の装備品しか行えない。")
    ShowMessage("武器なら武器同士、盾なら盾同士でしか合成できないのだ。")
    ShowMessageFace("dragonp_fc2",0,0,2,41)
    ShowMessage("【鍛冶屋】")
    ShowMessage("装備品ＡとＢを合成する場合……")
    ShowMessage("合成後はＡが強化される形となり、Ｂは素材として消費される。")
    ShowMessageFace("dragonp_fc2",0,0,2,42)
    ShowMessage("【鍛冶屋】")
    ShowMessage("合成で強化されるのは、先に説明した強化値のみ。")
    ShowMessage("それ以外に変化はないので、注意しておくがいい。")
    ShowMessageFace("dragonp_fc2",0,0,2,43)
    ShowMessage("【鍛冶屋】")
    ShowMessage("また強化値は、単純にプラスされる訳ではない。")
    ShowMessage("例えば「炎の剣＋２」と「鉄の剣＋２」を合成した場合……")
    ShowMessageFace("dragonp_fc2",0,0,2,44)
    ShowMessage("【鍛冶屋】")
    ShowMessage("合成後は、「炎の剣＋３」となる。")
    ShowMessage("強化値は、一度の合成で＋１しかされないのだ。")
    ShowMessageFace("dragonp_fc2",0,0,2,45)
    ShowMessage("【鍛冶屋】")
    ShowMessage("よって「炎の剣＋２」と「鉄の剣＋３」を合成しても、")
    ShowMessage("＋１ずつしか上がらないので「炎の剣＋３」となる。")
    ShowMessageFace("dragonp_fc2",0,0,2,46)
    ShowMessage("【鍛冶屋】")
    ShowMessage("またＢの強化値は、Ａと同じか上回っている必要がある。")
    ShowMessage("「炎の剣＋２」に「鉄の剣＋１」を合成できないという事だ。")
    ShowMessageFace("dragonp_fc2",0,0,2,47)
    ShowMessage("【鍛冶屋】")
    ShowMessage("このように、合成には制限が多いが……")
    ShowMessage("強化を重ねれば、非常に性能が高い装備品が完成するはずだ。")
    ShowMessageFace("dragonp_fc2",0,0,2,48)
    ShowMessage("【鍛冶屋】")
    ShowMessage("粘り強く装備品を強化し、戦力を高めるがいい。")
    ShowMessage("そうすれば、どんな難敵も倒せるはずだ。")
    ShowMessageFace("dragonp_fc2",0,0,2,49)
    ShowMessage("【鍛冶屋】")
    ShowMessage("さて、他に何が聞きたい？")
    JumpToLabel("解説")
    0()
   EndIf()
   JumpToLabel("鍛冶")
   0()
  IfPlayerCancelsChoice()
   PictureClear(5)
   EndEventProcessing()
   0()
  404()
  0()



EVENT   14
 PAGE   1
  // condition: variable 123 >= 9
  ShowMessageFace("sirousagi_fc1",0,0,2,1)
  ShowMessage("【白兎】")
  ShowMessage("今のUPは\\V[910]ポイントだよ。")
  ShowMessage("アイテムと交換する？")
  ShowChoices(strings("交換する","交換しない","UPって何？"),2)
  IfPlayerPicksChoice(0,null)
   DefineLabel("リスト")
   355("unlimited_choices(11,[\"空の秘石（10）\",")
   655("\"虚の秘石（50）\",\"無の秘石（200）\",")
   655("\"秘石10連ガチャ（200）\",")
   655("\"レジェンド武器5連ガチャ（1000）\",")
   655("\"レジェンド防具5連ガチャ（1000）\",")
   655("\"やめる\"])")
   If(1,11,0,0,0)
    If(1,910,0,10,1)
     ChangeVariable(910,910,2,0,10)
     ShowMessageFace("sirousagi_fc1",0,0,2,2)
     ShowMessage("【白兎】")
     ShowMessage("はい、どうぞ～♪")
     250(bytes(0x04,0x08,0x6f,0x3a,0x0c,0x52,0x50,0x47,0x3a,0x3a,0x53,0x45,0x08,0x3a,0x0a,0x40,0x6e,0x61,0x6d,0x65,0x49,0x22,0x0a,0x49,0x74,0x65,0x6d,0x31,0x06,0x3a,0x06,0x45,0x54,0x3a,0x0b,0x40,0x70,0x69,0x74,0x63,0x68,0x69,0x69,0x3a,0x0c,0x40,0x76,0x6f,0x6c,0x75,0x6d,0x65,0x69,0x55))
     ChangeInventory_Item(91,0,0,1)
     ShowMessageFace("sirousagi_fc1",0,0,2,3)
     ShowMessage("【白兎】")
     ShowMessage("残りUPは\\V[910]ポイントだよ。")
     ShowMessage("他にも、何か交換する？")
     JumpToLabel("リスト")
     0()
    Else()
     ShowMessageFace("sirousagi_fc1",0,0,2,4)
     ShowMessage("【白兎】")
     ShowMessage("それを交換するには、UPが足りないよ～！")
     JumpToLabel("リスト")
     0()
    EndIf()
    0()
   EndIf()
   If(1,11,0,1,0)
    If(1,910,0,50,1)
     ChangeVariable(910,910,2,0,50)
     ShowMessageFace("sirousagi_fc1",0,0,2,5)
     ShowMessage("【白兎】")
     ShowMessage("はい、どうぞ～♪")
     250(bytes(0x04,0x08,0x6f,0x3a,0x0c,0x52,0x50,0x47,0x3a,0x3a,0x53,0x45,0x08,0x3a,0x0a,0x40,0x6e,0x61,0x6d,0x65,0x49,0x22,0x0a,0x49,0x74,0x65,0x6d,0x31,0x06,0x3a,0x06,0x45,0x54,0x3a,0x0b,0x40,0x70,0x69,0x74,0x63,0x68,0x69,0x69,0x3a,0x0c,0x40,0x76,0x6f,0x6c,0x75,0x6d,0x65,0x69,0x55))
     ChangeInventory_Item(92,0,0,1)
     ShowMessageFace("sirousagi_fc1",0,0,2,6)
     ShowMessage("【白兎】")
     ShowMessage("残りUPは\\V[910]ポイントだよ。")
     ShowMessage("他にも、何か交換する？")
     JumpToLabel("リスト")
     0()
    Else()
     ShowMessageFace("sirousagi_fc1",0,0,2,7)
     ShowMessage("【白兎】")
     ShowMessage("それを交換するには、UPが足りないよ～！")
     JumpToLabel("リスト")
     0()
    EndIf()
    0()
   EndIf()
   If(1,11,0,2,0)
    If(1,910,0,200,1)
     ChangeVariable(910,910,2,0,200)
     ShowMessageFace("sirousagi_fc1",0,0,2,8)
     ShowMessage("【白兎】")
     ShowMessage("はい、どうぞ～♪")
     250(bytes(0x04,0x08,0x6f,0x3a,0x0c,0x52,0x50,0x47,0x3a,0x3a,0x53,0x45,0x08,0x3a,0x0a,0x40,0x6e,0x61,0x6d,0x65,0x49,0x22,0x0a,0x49,0x74,0x65,0x6d,0x31,0x06,0x3a,0x06,0x45,0x54,0x3a,0x0b,0x40,0x70,0x69,0x74,0x63,0x68,0x69,0x69,0x3a,0x0c,0x40,0x76,0x6f,0x6c,0x75,0x6d,0x65,0x69,0x55))
     ChangeInventory_Item(93,0,0,1)
     ShowMessageFace("sirousagi_fc1",0,0,2,9)
     ShowMessage("【白兎】")
     ShowMessage("残りUPは\\V[910]ポイントだよ。")
     ShowMessage("他にも、何か交換する？")
     JumpToLabel("リスト")
     0()
    Else()
     ShowMessageFace("sirousagi_fc1",0,0,2,10)
     ShowMessage("【白兎】")
     ShowMessage("それを交換するには、UPが足りないよ～！")
     JumpToLabel("リスト")
     0()
    EndIf()
    0()
   EndIf()
   If(1,11,0,3,0)
    If(1,910,0,200,1)
     ChangeVariable(910,910,2,0,200)
     ShowMessageFace("sirousagi_fc1",0,0,2,11)
     ShowMessage("【白兎】")
     ShowMessage("秘石ガチャを回すんだね。")
     ShowMessage("それじゃあ、いくよ～♪")
     ChangeVariable(15,15,0,0,0)
     StartLoop()
      ChangeVariable(15,15,1,0,1)
      If(1,15,0,11,0)
       Break()
       0()
      EndIf()
      ChangeVariable(18,18,0,2,1,5)
      If(1,18,0,4,2)
       RunCommonEvent(822)
       0()
      EndIf()
      If(1,18,0,5,0)
       RunCommonEvent(823)
       0()
      EndIf()
      0()
     EndLoop()
     ShowMessageFace("sirousagi_fc1",0,0,2,12)
     ShowMessage("【白兎】")
     ShowMessage("残りUPは\\V[910]ポイントだよ。")
     ShowMessage("他にも、何か交換する？")
     JumpToLabel("リスト")
     0()
    Else()
     ShowMessageFace("sirousagi_fc1",0,0,2,13)
     ShowMessage("【白兎】")
     ShowMessage("ガチャを回すには、UPが足りないよ～！")
     JumpToLabel("リスト")
     0()
    EndIf()
    0()
   EndIf()
   If(1,11,0,4,0)
    If(1,910,0,1000,1)
     ChangeVariable(910,910,2,0,1000)
     ShowMessageFace("sirousagi_fc1",0,0,2,14)
     ShowMessage("【白兎】")
     ShowMessage("レジェンド武器ガチャを回すんだね。")
     ShowMessage("それじゃあ、いくよ～♪")
     ChangeVariable(15,15,0,0,0)
     StartLoop()
      ChangeVariable(15,15,1,0,1)
      If(1,15,0,6,0)
       Break()
       0()
      EndIf()
      ChangeVariable(18,18,0,2,1,4)
      If(1,18,0,1,0)
       RunCommonEvent(806)
       0()
      EndIf()
      If(1,18,0,2,0)
       RunCommonEvent(812)
       0()
      EndIf()
      If(1,18,0,3,0)
       RunCommonEvent(803)
       0()
      EndIf()
      If(1,18,0,4,0)
       RunCommonEvent(809)
       0()
      EndIf()
      0()
     EndLoop()
     ShowMessageFace("sirousagi_fc1",0,0,2,15)
     ShowMessage("【白兎】")
     ShowMessage("残りUPは\\V[910]ポイントだよ。")
     ShowMessage("他にも、何か交換する？")
     JumpToLabel("リスト")
     0()
    Else()
     ShowMessageFace("sirousagi_fc1",0,0,2,16)
     ShowMessage("【白兎】")
     ShowMessage("ガチャを回すには、UPが足りないよ～！")
     JumpToLabel("リスト")
     0()
    EndIf()
    0()
   EndIf()
   If(1,11,0,5,0)
    If(1,910,0,1000,1)
     ChangeVariable(910,910,2,0,1000)
     ShowMessageFace("sirousagi_fc1",0,0,2,17)
     ShowMessage("【白兎】")
     ShowMessage("レジェンド防具ガチャを回すんだね。")
     ShowMessage("それじゃあ、いくよ～♪")
     ChangeVariable(15,15,0,0,0)
     StartLoop()
      ChangeVariable(15,15,1,0,1)
      If(1,15,0,6,0)
       Break()
       0()
      EndIf()
      ChangeVariable(18,18,0,2,1,5)
      If(1,18,0,2,2)
       RunCommonEvent(815)
       0()
      EndIf()
      If(1,18,0,3,1)
       If(1,18,0,4,2)
        RunCommonEvent(818)
        0()
       EndIf()
       0()
      EndIf()
      If(1,18,0,5,0)
       RunCommonEvent(821)
       0()
      EndIf()
      0()
     EndLoop()
     ShowMessageFace("sirousagi_fc1",0,0,2,18)
     ShowMessage("【白兎】")
     ShowMessage("残りUPは\\V[910]ポイントだよ。")
     ShowMessage("他にも、何か交換する？")
     JumpToLabel("リスト")
     0()
    Else()
     ShowMessageFace("sirousagi_fc1",0,0,2,19)
     ShowMessage("【白兎】")
     ShowMessage("ガチャを回すには、UPが足りないよ～！")
     JumpToLabel("リスト")
     0()
    EndIf()
    0()
   EndIf()
   EndEventProcessing()
   0()
  IfPlayerPicksChoice(1,null)
   EndEventProcessing()
   0()
  IfPlayerPicksChoice(2,null)
   ShowMessageFace("sirousagi_fc1",0,0,2,20)
   ShowMessage("【白兎】")
   ShowMessage("UPってのは、うさぎポイントの略。")
   ShowMessage("ボクが勝手に作ったポイントだよ。")
   ShowMessageFace("sirousagi_fc1",0,0,2,21)
   ShowMessage("【白兎】")
   ShowMessage("現在のレアポイントが最大値を上回った場合、")
   ShowMessage("溢れたポイントをUPに変換してあげる。")
   ShowMessageFace("sirousagi_fc1",0,0,2,22)
   ShowMessage("【白兎】")
   ShowMessage("UPは、ここでアイテムと交換できるよ。")
   ShowMessage("あとダンジョンを出ても、UPはなくならないからね～！")
   EndEventProcessing()
   0()
  404()
  0()


