﻿


EVENT   1
 PAGE   1
  // condition: variable 148 >= 5
  ChangeSwitch(73,73,0)
  If(1,129,0,0,0)
   ShowMessageFace("AD-5_fc1",0,0,2,1)
   ShowMessage("【AD-5】")
   ShowMessage("回復スキルと、ターンHP回復が無効になる……")
   ShowMessage("だが、最大HPがアップするアビリティ……")
   ShowMessageFace("",0,0,2,2)
   ShowMessage("誰が「反回復の陣」を修得しますか？")
   DefineLabel("選択")
   355("names = party_members.collect{|m|m.name}")
   655("unlimited_choices(11, names)")
   655("actor = party_members[$game_variables[11]]")
   655("$game_variables[10] = actor ? actor.id : 0")
   If(1,10,0,0,0)
    ChangeSwitch(73,73,1)
    EndEventProcessing()
    0()
   EndIf()
   If(12,"actor_skill_have?(v(10),864)")
    ShowMessageFace("",0,0,2,3)
    ShowMessage("そのキャラは、すでに「反回復の陣」を習得済みだ……")
    JumpToLabel("選択")
    0()
   EndIf()
   ChangeVariable(129,129,0,0,1)
   318(1,10,0,864)
   250(bytes(0x04,0x08,0x6f,0x3a,0x0c,0x52,0x50,0x47,0x3a,0x3a,0x53,0x45,0x08,0x3a,0x0a,0x40,0x6e,0x61,0x6d,0x65,0x49,0x22,0x0a,0x49,0x74,0x65,0x6d,0x31,0x06,0x3a,0x06,0x45,0x54,0x3a,0x0b,0x40,0x70,0x69,0x74,0x63,0x68,0x69,0x69,0x3a,0x0c,0x40,0x76,0x6f,0x6c,0x75,0x6d,0x65,0x69,0x55))
   ShowMessageFace("",0,0,2,4)
   ShowMessage("\\I[99]\\C[1]反回復の陣\\C[0]を修得した！")
   ChangeSwitch(73,73,1)
   EndEventProcessing()
   0()
  EndIf()
  If(1,129,0,1,0)
   ShowMessageFace("AD-5_fc1",0,0,2,5)
   ShowMessage("【AD-5】")
   ShowMessage("命が……欲しい……")
   ChangeSwitch(73,73,1)
   EndEventProcessing()
   0()
  EndIf()
  0()
 PAGE   2
  // condition: variable 148 >= 7
  ChangeSwitch(73,73,0)
  If(1,129,0,0,0)
   ShowMessageFace("lizardboss_fc1",0,0,2,1)
   ShowMessage("【リザードボス】")
   ShowMessage("通常攻撃の付加属性が物理属性のみになるんだけど……")
   ShowMessage("その代わり、通常攻撃の威力が上がるアビリティはどうだい？")
   ShowMessageFace("",0,0,2,2)
   ShowMessage("誰が「属性否定の陣」を修得しますか？")
   DefineLabel("選択")
   355("names = party_members.collect{|m|m.name}")
   655("unlimited_choices(11, names)")
   655("actor = party_members[$game_variables[11]]")
   655("$game_variables[10] = actor ? actor.id : 0")
   If(1,10,0,0,0)
    ChangeSwitch(73,73,1)
    EndEventProcessing()
    0()
   EndIf()
   If(12,"actor_skill_have?(v(10),865)")
    ShowMessageFace("",0,0,2,3)
    ShowMessage("そのキャラは、すでに「属性否定の陣」を習得済みだ……")
    JumpToLabel("選択")
    0()
   EndIf()
   ChangeVariable(129,129,0,0,1)
   318(1,10,0,865)
   250(bytes(0x04,0x08,0x6f,0x3a,0x0c,0x52,0x50,0x47,0x3a,0x3a,0x53,0x45,0x08,0x3a,0x0a,0x40,0x6e,0x61,0x6d,0x65,0x49,0x22,0x0a,0x49,0x74,0x65,0x6d,0x31,0x06,0x3a,0x06,0x45,0x54,0x3a,0x0b,0x40,0x70,0x69,0x74,0x63,0x68,0x69,0x69,0x3a,0x0c,0x40,0x76,0x6f,0x6c,0x75,0x6d,0x65,0x69,0x55))
   ShowMessageFace("",0,0,2,4)
   ShowMessage("\\I[99]\\C[1]属性否定の陣\\C[0]を修得した！")
   ChangeSwitch(73,73,1)
   EndEventProcessing()
   0()
  EndIf()
  If(1,129,0,1,0)
   ShowMessageFace("lizardboss_fc1",0,0,2,5)
   ShowMessage("【リザードボス】")
   ShowMessage("どこまでも、己を貫き通しなよ！")
   ChangeSwitch(73,73,1)
   EndEventProcessing()
   0()
  EndIf()
  0()
 PAGE   3
  // condition: variable 148 >= 9
  ChangeSwitch(73,73,0)
  If(1,129,0,0,0)
   ShowMessageFace("nurukox_fc1",0,0,2,1)
   ShowMessage("【■■■】")
   ShowMessage("……………………")
   ShowMessageFace("",0,0,2,2)
   ShowMessage("混沌武器のマスタリーを教えてくれるようだ。")
   ShowMessage("誰が「混沌マスタリー」を修得しますか？")
   DefineLabel("選択")
   355("names = party_members.collect{|m|m.name}")
   655("unlimited_choices(11, names)")
   655("actor = party_members[$game_variables[11]]")
   655("$game_variables[10] = actor ? actor.id : 0")
   If(1,10,0,0,0)
    ChangeSwitch(73,73,1)
    EndEventProcessing()
    0()
   EndIf()
   If(12,"actor_skill_have?(v(10),5655)")
    ShowMessageFace("",0,0,2,3)
    ShowMessage("そのキャラは、すでに「混沌マスタリー」を習得済みだ……")
    JumpToLabel("選択")
    0()
   EndIf()
   ChangeVariable(129,129,0,0,1)
   318(1,10,0,5655)
   250(bytes(0x04,0x08,0x6f,0x3a,0x0c,0x52,0x50,0x47,0x3a,0x3a,0x53,0x45,0x08,0x3a,0x0a,0x40,0x6e,0x61,0x6d,0x65,0x49,0x22,0x0a,0x49,0x74,0x65,0x6d,0x31,0x06,0x3a,0x06,0x45,0x54,0x3a,0x0b,0x40,0x70,0x69,0x74,0x63,0x68,0x69,0x69,0x3a,0x0c,0x40,0x76,0x6f,0x6c,0x75,0x6d,0x65,0x69,0x55))
   ShowMessageFace("",0,0,2,4)
   ShowMessage("\\I[99]\\C[1]混沌マスタリー\\C[0]を修得した！")
   ChangeSwitch(73,73,1)
   EndEventProcessing()
   0()
  EndIf()
  If(1,129,0,1,0)
   ShowMessageFace("nurukox_fc1",7,0,2,5)
   ShowMessage("【■■■】")
   ShowMessage("……………………")
   ChangeSwitch(73,73,1)
   EndEventProcessing()
   0()
  EndIf()
  0()
 PAGE   4
  // condition: variable 148 >= 10
  ChangeSwitch(73,73,0)
  If(1,129,0,0,0)
   ShowMessageFace("jeraira_fc1",0,0,2,1)
   ShowMessage("【ジェライラ】")
   ShowMessage("究極の音波奥義を、あなた達にお伝えしましょう。")
   ShowMessage("ただし「歌う」が使えなければ、発動はできませんよ。")
   ShowMessageFace("",0,0,2,2)
   ShowMessage("誰が「ヘルクライ」を修得しますか？")
   DefineLabel("選択")
   355("names = party_members.collect{|m|m.name}")
   655("unlimited_choices(11, names)")
   655("actor = party_members[$game_variables[11]]")
   655("$game_variables[10] = actor ? actor.id : 0")
   If(1,10,0,0,0)
    ChangeSwitch(73,73,1)
    EndEventProcessing()
    0()
   EndIf()
   If(12,"actor_skill_have?(v(10),2106)")
    ShowMessageFace("",0,0,2,3)
    ShowMessage("そのキャラは、すでに「ヘルクライ」を習得済みだ……")
    JumpToLabel("選択")
    0()
   EndIf()
   ChangeVariable(129,129,0,0,1)
   318(1,10,0,2106)
   250(bytes(0x04,0x08,0x6f,0x3a,0x0c,0x52,0x50,0x47,0x3a,0x3a,0x53,0x45,0x08,0x3a,0x0a,0x40,0x6e,0x61,0x6d,0x65,0x49,0x22,0x0a,0x49,0x74,0x65,0x6d,0x31,0x06,0x3a,0x06,0x45,0x54,0x3a,0x0b,0x40,0x70,0x69,0x74,0x63,0x68,0x69,0x69,0x3a,0x0c,0x40,0x76,0x6f,0x6c,0x75,0x6d,0x65,0x69,0x55))
   ShowMessageFace("",0,0,2,4)
   ShowMessage("\\I[184]\\C[1]ヘルクライ\\C[0]を修得した！")
   ChangeSwitch(73,73,1)
   EndEventProcessing()
   0()
  EndIf()
  If(1,129,0,1,0)
   ShowMessageFace("jeraira_fc1",0,0,2,5)
   ShowMessage("【ジェライラ】")
   ShowMessage("ここから先も、お気を付け下さいね。")
   ShowMessage("禍々しい音色が満ちています……")
   ChangeSwitch(73,73,1)
   EndEventProcessing()
   0()
  EndIf()
  0()
 PAGE   5
  // condition: variable 148 >= 11
  RunCommonEvent(634)
  0()
 PAGE   6
  // condition: variable 148 >= 13
  RunCommonEvent(637)
  0()
 PAGE   7
  // condition: variable 148 >= 15
  RunCommonEvent(638)
  0()
 PAGE   8
  // condition: variable 148 >= 17
  RunCommonEvent(639)
  0()
 PAGE   9
  // condition: variable 148 >= 19
  RunCommonEvent(633)
  0()
 PAGE   10
  // condition: variable 148 >= 21
  RunCommonEvent(629)
  0()
 PAGE   11
  // condition: variable 148 >= 23
  RunCommonEvent(636)
  0()
 PAGE   12
  // condition: variable 148 >= 25
  RunCommonEvent(635)
  0()
 PAGE   13
  // condition: variable 148 >= 27
  RunCommonEvent(628)
  0()
 PAGE   14
  // condition: variable 148 >= 28
  RunCommonEvent(644)
  0()
 PAGE   15
  // condition: variable 148 >= 29
  RunCommonEvent(663)
  0()
 PAGE   16
  // condition: variable 148 >= 30
  RunCommonEvent(664)
  0()
 PAGE   17
  // condition: variable 148 >= 31
  RunCommonEvent(665)
  0()
 PAGE   18
  // condition: variable 148 >= 32
  RunCommonEvent(666)
  0()
 PAGE   19
  // condition: variable 148 >= 33
  RunCommonEvent(667)
  0()
 PAGE   20
  // condition: variable 148 >= 34
  RunCommonEvent(668)
  0()
 PAGE   21
  // condition: variable 148 >= 35
  RunCommonEvent(669)
  0()
 PAGE   22
  // condition: variable 148 >= 36
  RunCommonEvent(670)
  0()
 PAGE   23
  // condition: variable 148 >= 37
  RunCommonEvent(671)
  0()
 PAGE   24
  // condition: variable 148 >= 38
  RunCommonEvent(672)
  0()
 PAGE   25
  // condition: variable 148 >= 39
  RunCommonEvent(673)
  0()
 PAGE   26
  // condition: variable 148 >= 40
  RunCommonEvent(674)
  0()
 PAGE   27
  // condition: variable 148 >= 41
  RunCommonEvent(675)
  0()
 PAGE   28
  // condition: variable 148 >= 42
  RunCommonEvent(676)
  0()
 PAGE   29
  // condition: variable 148 >= 43
  RunCommonEvent(677)
  0()
 PAGE   30
  // condition: variable 148 >= 44
  RunCommonEvent(678)
  0()
 PAGE   31
  // condition: variable 148 >= 45
  RunCommonEvent(679)
  0()
 PAGE   32
  // condition: variable 148 >= 46
  RunCommonEvent(680)
  0()
 PAGE   33
  // condition: variable 148 >= 47
  If(1,607,0,5,2)
   RunCommonEvent(681)
   EndEventProcessing()
   0()
  Else()
   ChangeVariable(14,14,0,2,1,4)
   If(1,14,0,3,2)
    RunCommonEvent(681)
    EndEventProcessing()
    0()
   EndIf()
   If(1,14,0,4,0)
    RunCommonEvent(682)
    EndEventProcessing()
    0()
   EndIf()
   0()
  EndIf()
  0()
 PAGE   34
  // condition: variable 148 >= 48
  RunCommonEvent(683)
  0()
 PAGE   35
  // condition: variable 148 >= 49
  ChangeSwitch(73,73,0)
  If(1,129,0,0,0)
   ShowMessageFace("domeima_fc1",0,0,2,1)
   ShowMessage("【ドーメイマ】")
   ShowMessage("この私のように、常に瀕死になるアビリティを伝授しましょう。")
   ShowMessage("瀕死になる代わり、全能力値がアップするメリットもありますよ。")
   ShowMessageFace("domeima_fc1",0,0,2,2)
   ShowMessage("【ドーメイマ】")
   ShowMessage("またこのアビリティは、ターンHP回復の効果も無効化します。")
   ShowMessage("瀕死状態を維持したい時など、良いですね。")
   ShowMessageFace("",0,0,2,3)
   ShowMessage("誰が「背水の陣」を修得しますか？")
   DefineLabel("選択")
   355("names = party_members.collect{|m|m.name}")
   655("unlimited_choices(11, names)")
   655("actor = party_members[$game_variables[11]]")
   655("$game_variables[10] = actor ? actor.id : 0")
   If(1,10,0,0,0)
    ChangeSwitch(73,73,1)
    ShowMessageFace("domeima_fc1",0,0,2,4)
    ShowMessage("【ドーメイマ】")
    ShowMessage("グエー！！")
    TemporaryRemoveEvent()
    241(bytes(0x04,0x08,0x6f,0x3a,0x0d,0x52,0x50,0x47,0x3a,0x3a,0x42,0x47,0x4d,0x08,0x3a,0x0a,0x40,0x6e,0x61,0x6d,0x65,0x49,0x22,0x14,0x73,0x63,0x65,0x6e,0x65,0x5f,0x6b,0x61,0x6e,0x61,0x73,0x69,0x6d,0x69,0x32,0x06,0x3a,0x06,0x45,0x54,0x3a,0x0c,0x40,0x76,0x6f,0x6c,0x75,0x6d,0x65,0x69,0x69,0x3a,0x0b,0x40,0x70,0x69,0x74,0x63,0x68,0x69,0x69))
    ShowMessageFace("",0,0,2,5)
    ShowMessage("ドーメイマは力尽きた……")
    EndEventProcessing()
    0()
   EndIf()
   If(12,"actor_skill_have?(v(10),863)")
    ShowMessageFace("",0,0,2,6)
    ShowMessage("そのキャラは、すでに「背水の陣」を習得済みだ……")
    JumpToLabel("選択")
    0()
   EndIf()
   ChangeVariable(129,129,0,0,1)
   318(1,10,0,863)
   250(bytes(0x04,0x08,0x6f,0x3a,0x0c,0x52,0x50,0x47,0x3a,0x3a,0x53,0x45,0x08,0x3a,0x0a,0x40,0x6e,0x61,0x6d,0x65,0x49,0x22,0x0a,0x49,0x74,0x65,0x6d,0x31,0x06,0x3a,0x06,0x45,0x54,0x3a,0x0b,0x40,0x70,0x69,0x74,0x63,0x68,0x69,0x69,0x3a,0x0c,0x40,0x76,0x6f,0x6c,0x75,0x6d,0x65,0x69,0x55))
   ShowMessageFace("",0,0,2,7)
   ShowMessage("\\I[99]\\C[1]背水の陣\\C[0]を修得した！")
   ChangeSwitch(73,73,1)
   ShowMessageFace("domeima_fc1",0,0,2,8)
   ShowMessage("【ドーメイマ】")
   ShowMessage("グエー！！")
   TemporaryRemoveEvent()
   241(bytes(0x04,0x08,0x6f,0x3a,0x0d,0x52,0x50,0x47,0x3a,0x3a,0x42,0x47,0x4d,0x08,0x3a,0x0a,0x40,0x6e,0x61,0x6d,0x65,0x49,0x22,0x14,0x73,0x63,0x65,0x6e,0x65,0x5f,0x6b,0x61,0x6e,0x61,0x73,0x69,0x6d,0x69,0x32,0x06,0x3a,0x06,0x45,0x54,0x3a,0x0c,0x40,0x76,0x6f,0x6c,0x75,0x6d,0x65,0x69,0x69,0x3a,0x0b,0x40,0x70,0x69,0x74,0x63,0x68,0x69,0x69))
   ShowMessageFace("",0,0,2,9)
   ShowMessage("ドーメイマは力尽きた……")
   EndEventProcessing()
   0()
  EndIf()
  0()



EVENT   2
 PAGE   1
  ShowMessageFace("",0,0,2,1)
  ShowMessage("次のフロアに進みますか？")
  ShowChoices(strings("まだ行かない","次のフロアに進む"),1)
  IfPlayerPicksChoice(0,null)
   205(-1,bytes(0x04,0x08,0x6f,0x3a,0x13,0x52,0x50,0x47,0x3a,0x3a,0x4d,0x6f,0x76,0x65,0x52,0x6f,0x75,0x74,0x65,0x09,0x3a,0x0c,0x40,0x72,0x65,0x70,0x65,0x61,0x74,0x46,0x3a,0x0f,0x40,0x73,0x6b,0x69,0x70,0x70,0x61,0x62,0x6c,0x65,0x46,0x3a,0x0a,0x40,0x77,0x61,0x69,0x74,0x54,0x3a,0x0a,0x40,0x6c,0x69,0x73,0x74,0x5b,0x07,0x6f,0x3a,0x15,0x52,0x50,0x47,0x3a,0x3a,0x4d,0x6f,0x76,0x65,0x43,0x6f,0x6d,0x6d,0x61,0x6e,0x64,0x07,0x3a,0x0a,0x40,0x63,0x6f,0x64,0x65,0x69,0x09,0x3a,0x10,0x40,0x70,0x61,0x72,0x61,0x6d,0x65,0x74,0x65,0x72,0x73,0x5b,0x00,0x6f,0x3b,0x0a,0x07,0x3b,0x0b,0x69,0x00,0x3b,0x0c,0x5b,0x00))
   EndEventProcessing()
   0()
  IfPlayerPicksChoice(1,null)
   ChangeVariable(121,121,2,0,1)
   RunCommonEvent(901)
   EndEventProcessing()
   0()
  404()
  0()



EVENT   3
 PAGE   1
  221()
  ChangeSwitch(41,41,1)
  ChangeSwitch(52,52,1)
  ChangeSaveEnabled(1)
  ChangeSwitch(61,61,1)
  ChangeSwitch(62,62,1)
  ChangeSwitch(63,63,1)
  ChangeSwitch(64,64,1)
  ChangeSwitch(65,65,1)
  ChangeSwitch(69,69,1)
  ChangeSwitch(70,70,1)
  ChangeSwitch(71,71,1)
  ChangeSwitch(72,72,1)
  ChangeSwitch(54,54,1)
  ChangeSwitch(66,66,1)
  ChangeSwitch(67,67,1)
  ChangeSwitch(68,68,1)
  ChangeVariable(131,131,0,0,0)
  ChangeVariable(121,121,0,0,0)
  RunCommonEvent(112)
  If(1,121,1,122,1)
   ChangeVariable(122,122,0,1,121)
   0()
  EndIf()
  TeleportPlayer(0,576,14,50,2,2)
  ShowMessageFace("",0,0,2,1)
  ShowMessage("混沌の迷宮リニューアルにつき、過去の迷宮から弾き出された！")
  Wait(60)
  222()
  TemporaryRemoveEvent()
  0()
 PAGE   2
  // condition: switch 1926 is ON
  0()
